<svg xmlns="http://www.w3.org/2000/svg" width="100" height="100">
  <path d="M82.803 41.611C79.038 28.6 66.616 19 51.873 19H26a3 3 0 0 0-3 3v55.692a3 3 0 0 0 3 3h25.874a32.795 32.795 0 0 0 19.472-6.368c7.68-5.642 12.664-14.512 12.664-24.484l-.01.012c0-2.858-.438-5.618-1.196-8.242zM17.947 0h64.106c6.24 0 8.503.65 10.785 1.87a12.721 12.721 0 0 1 5.292 5.292c1.22 2.282 1.87 4.545 1.87 10.785v64.106c0 6.24-.65 8.503-1.87 10.785a12.721 12.721 0 0 1-5.292 5.292c-2.282 1.22-4.545 1.87-10.785 1.87H17.947c-6.24 0-8.503-.65-10.785-1.87a12.721 12.721 0 0 1-5.292-5.292C.65 90.556 0 88.293 0 82.053V17.947c0-6.24.65-8.503 1.87-10.785A12.721 12.721 0 0 1 7.162 1.87C9.444.65 11.707 0 17.947 0zM42.59 61.886V37.804h9.285c6.914 0 12.547 5.403 12.547 12.048 0 6.633-5.633 12.034-12.547 12.034h-9.285z"/>
</svg>
