<svg width="32" height="26" viewBox="0 0 32 26" xmlns="http://www.w3.org/2000/svg">
  <title>Change Language</title>
  <path d="M32 0v20h-6v6l-6-6H0V0h32zM19.794 12.578H17.89v3.318h8.582v-1.47h-6.678v-1.848zM9.877 5.136h-3.07L3.5 15h2.488l.636-2.167h3.22L10.458 15h2.734L9.877 5.136zM26.22 3.632h-1.834v9.394h1.834V9.344h1.68V7.832h-1.68v-4.2zm-6.23 3.85c-1.806 0-3.01 1.036-3.01 2.352 0 1.33 1.218 2.352 3.01 2.352 1.792 0 3.01-1.022 3.01-2.352 0-1.316-1.218-2.352-3.01-2.352zM8.312 7.357l1.06 3.671h-2.27l1.08-3.67h.13zM19.99 8.826c.714 0 1.19.518 1.19 1.008 0 .518-.476.98-1.19.98-.7 0-1.176-.462-1.176-.98 0-.49.476-1.008 1.176-1.008zm3.612-2.968h-7.28v1.414h7.28V5.858zM21.88 3.982h-3.752V5.34h3.752V3.982z" fill-rule="evenodd"/>
</svg>
