<svg viewBox="0 0 128 128" width="128" height="128" xmlns="http://www.w3.org/2000/svg">
  <title>Save Jeju Bada</title>
  <g fill="none" fill-rule="nonzero">
    <path d="M64 0c35.346 0 64 28.654 64 64 0 35.346-28.654 64-64 64-35.346 0-64-28.654-64-64C0 28.654 28.654 0 64 0z" fill="#000"/>
    <path d="M64 3C30.31 3 3 30.31 3 64s27.31 61 61 61 61-27.31 61-61S97.69 3 64 3z" fill="#F99500"/>
    <path d="M125.495 71.952C121.556 102.705 95.28 126 64 126c-31.05 0-57.197-22.959-61.412-53.427l-.34-2.461 1.95 1.539C5.368 72.573 6.458 73 8.054 73c2.013 0 2.975-.519 4.894-2.244C15.2 68.731 16.557 68 19.178 68c2.623 0 3.98.731 6.232 2.756C27.33 72.481 28.29 73 30.304 73c2.013 0 2.975-.519 4.894-2.244C37.45 68.731 38.807 68 41.428 68c2.623 0 3.98.731 6.232 2.756C49.58 72.481 50.54 73 52.554 73c2.013 0 2.975-.519 4.894-2.244C59.7 68.731 61.057 68 63.678 68c2.623 0 3.98.731 6.232 2.756C71.83 72.481 72.79 73 74.804 73c2.013 0 2.975-.519 4.894-2.244C81.95 68.731 83.307 68 85.929 68s3.978.731 6.231 2.756C94.08 72.481 95.04 73 97.054 73c2.013 0 2.975-.519 4.894-2.244C104.2 68.731 105.557 68 108.179 68s3.978.731 6.231 2.756c1.92 1.725 2.88 2.244 4.894 2.244 1.88 0 2.96-.528 4.536-1.923l1.993-1.765-.338 2.64z" fill="#000"/>
    <path d="M124.503 71.825c-1.28 1.133-2.66 2.175-5.199 2.175-5.563 0-5.563-5-11.125-5-5.563 0-5.563 5-11.125 5-5.563 0-5.563-5-11.125-5-5.563 0-5.563 5-11.125 5-5.563 0-5.563-5-11.125-5-5.563 0-5.563 5-11.125 5-5.563 0-5.563-5-11.125-5-5.563 0-5.563 5-11.125 5-5.563 0-5.563-5-11.125-5-5.563 0-5.563 5-11.125 5-2.072 0-3.372-.694-4.475-1.564C7.687 102.133 33.173 125 64 125c31.038 0 56.662-23.181 60.503-53.175z" fill="#00ADF3"/>
    <path d="M122.331 85.06C113.532 109.427 90.336 126 64 126c-26.271 0-49.423-16.491-58.271-40.774l-.594-1.63 1.709.303c.373.067.775.101 1.21.101 2.013 0 2.975-.519 4.894-2.244C15.2 79.731 16.557 79 19.179 79s3.978.731 6.231 2.756C27.33 83.481 28.29 84 30.304 84c2.013 0 2.975-.519 4.894-2.244C37.45 79.731 38.807 79 41.428 79c2.623 0 3.98.731 6.232 2.756C49.58 83.481 50.54 84 52.554 84c2.013 0 2.975-.519 4.894-2.244C59.7 79.731 61.057 79 63.678 79c2.623 0 3.98.731 6.232 2.756C71.83 83.481 72.79 84 74.804 84c2.013 0 2.975-.519 4.894-2.244C81.95 79.731 83.307 79 85.929 79s3.978.731 6.231 2.756C94.08 83.481 95.04 84 97.054 84c2.013 0 2.975-.519 4.894-2.244C104.2 79.731 105.557 79 108.179 79s3.978.731 6.231 2.756c1.92 1.725 2.88 2.244 4.894 2.244.675 0 1.268-.082 1.805-.24l1.892-.555-.67 1.854z" fill="#000"/>
    <path d="M121.39 84.72a7.344 7.344 0 0 1-2.086.28c-5.563 0-5.563-5-11.125-5-5.563 0-5.563 5-11.125 5-5.563 0-5.563-5-11.125-5-5.563 0-5.563 5-11.125 5-5.563 0-5.563-5-11.125-5-5.563 0-5.563 5-11.125 5-5.563 0-5.563-5-11.125-5-5.563 0-5.563 5-11.125 5-5.563 0-5.563-5-11.125-5-5.563 0-5.563 5-11.125 5-.505 0-.964-.041-1.385-.116C15.196 108.288 37.646 125 64 125c26.415 0 48.909-16.79 57.39-40.28z" fill="#07B"/>
    <path d="M63.7 103.782c-3.448-.045-7.047-.756-10.797-2.127-1.915-.7-2.903-4.288-2.903-8.295 0-4.875.419-10.416 1.251-16.583.535-5.844 1.187-10.788 1.956-14.834C53.605 59.85 57.951 58 63.713 58c5.791 0 10.4 1.874 10.793 3.943.769 4.046 1.42 8.99 1.95 14.792.838 6.21 1.257 11.75 1.257 16.625 0 4.007-.988 7.595-2.904 8.295-3.866 1.414-7.74 2.172-11.11 2.127z" fill="#000"/>
    <path d="M63.713 102.782c3.33.044 7.106-.732 10.753-2.066 1.467-.536 2.247-4.172 2.247-7.356 0-4.827-.416-10.324-1.247-16.492-.533-5.814-1.18-10.727-1.943-14.738-.183-.966-3.393-3.13-9.81-3.13-6.418 0-9.34 2.164-9.524 3.13-.762 4.01-1.41 8.924-1.942 14.738C51.416 83.036 51 88.533 51 93.36c0 3.184.78 6.82 2.247 7.356 3.647 1.334 7.136 2.022 10.466 2.066z" fill="#BEBEC0"/>
    <path d="M66.251 88.845c0-.46.185-.878.485-1.182a1.684 1.684 0 0 1 .004-2.375 1.687 1.687 0 0 1 1.196-2.864h1.194a1.685 1.685 0 0 1 1.542-2.368h4.792l-.33-2.358-1.268-9.072.113-.259c.226-.514.373-1.06.435-1.59.025-.295.038-.67.038-1.132 0-.326-.008-.703-.022-1.137l-.027-.822.801-.185a2.87 2.87 0 0 0 1.434-.82l.978-1.029.64 1.268c.353.7.607 1.448.753 2.221.04.213.096.614.16 1.153.19 1.568.388 3.51.961 9.267l.01.103.18 1.796c.346 3.465.565 5.571.73 6.966.061.501.092 1.006.092 1.477a8.818 8.818 0 0 1-1.336 4.975 4.924 4.924 0 0 1-1.522 1.476 3.74 3.74 0 0 1-1.931.544h-8.417c-.876 0-1.677-.73-1.677-1.666 0-.456.194-.876.497-1.185a1.68 1.68 0 0 1-.505-1.202z" fill="#000"/>
    <path d="M76.35 91.898a2.74 2.74 0 0 0 1.414-.398 3.916 3.916 0 0 0 1.208-1.173 7.8 7.8 0 0 0 1.17-4.389c0-.466-.029-.93-.084-1.393-.19-1.604-.455-4.203-.733-6.985-.426-4.255-.882-8.938-1.148-11.146a20.845 20.845 0 0 0-.15-1.088 7.386 7.386 0 0 0-.664-1.956 3.87 3.87 0 0 1-1.933 1.105c.013.417.022.813.022 1.17 0 .469-.012.879-.042 1.22a6.632 6.632 0 0 1-.515 1.903l1.23 8.792.388 2.777.05.185a.506.506 0 0 1-.453.533h-5.438a.685.685 0 1 0 0 1.37h3.067a.5.5 0 1 1 0 .999h-5.803a.685.685 0 0 0 0 1.37h4.289a.5.5 0 0 1 0 .998h-4.289a.685.685 0 1 0 0 1.37h4.289a.5.5 0 1 1 0 .998h-4.289a.685.685 0 1 0 0 1.37h4.289a.5.5 0 0 1 0 .998h-4.289c-.314.004-.677.317-.677.704 0 .386.361.666.677.666h8.414z" fill="#BEBEC0"/>
    <g>
      <path d="M52.621 76.462l.394-.024 3.895.066a1.685 1.685 0 0 1 1.54 2.368h1.196a1.685 1.685 0 0 1 1.198 2.87c.3.304.484.722.484 1.183 0 .461-.185.88-.486 1.184.3.304.487.722.487 1.184 0 .461-.186.88-.487 1.184a1.686 1.686 0 0 1-1.196 2.87l-10.032-.001-.08-.003a1.983 1.983 0 0 1-1.288-.618 5.435 5.435 0 0 1-1.305-2.304 12.085 12.085 0 0 1-.523-3.665c0-.63.039-1.258.113-1.881a1109.967 1109.967 0 0 1 1.107-8.958c.214-1.668.403-3.108.558-4.239.17-1.245.3-2.129.377-2.538.146-.772.4-1.52.754-2.22l.64-1.268.978 1.03a2.87 2.87 0 0 0 1.433.819l.801.185-.027.822c-.014.435-.021.811-.022 1.137 0 .46.013.836.036 1.105a5.65 5.65 0 0 0 .444 1.636l.16.362-.117.333-1.032 7.38z" fill="#000"/>
      <path d="M49.614 88.346h10.032a.685.685 0 0 0 0-1.37h-4.288a.5.5 0 1 1 0-.998h4.288a.685.685 0 0 0 0-1.37h-4.288a.5.5 0 0 1 0-.998h4.288a.685.685 0 0 0 0-1.37h-4.288a.5.5 0 1 1 0-.998h4.288a.685.685 0 0 0 0-1.37h-5.803a.5.5 0 1 1 0-.999h3.067a.685.685 0 1 0 0-1.37H51.97a.506.506 0 0 1-.453-.533l.05-.184 1.11-7.943a8.254 8.254 0 0 1-.504-1.979c-.03-.34-.043-.75-.043-1.22 0-.356.01-.752.023-1.169a3.87 3.87 0 0 1-1.933-1.105 7.382 7.382 0 0 0-.664 1.956 68.531 68.531 0 0 0-.37 2.487 512.507 512.507 0 0 0-.556 4.231 1111.112 1111.112 0 0 0-1.106 8.949c-.07.585-.105 1.174-.106 1.764-.015 1.142.147 2.28.48 3.373a4.47 4.47 0 0 0 1.073 1.907c.168.18.397.29.643.31z" fill="#BEBEC0"/>
    </g>
    <g>
      <path d="M74.132 49.448c.226.024.451.06.663.11.319.069.627.179.903.32.325.157.606.393.818.686l.055.085c.127.219.229.45.3.682.204.623.37 1.258.495 1.888.226 1.061.445 2.362.62 3.642.164 1.215.278 2.34.305 3.062l.004.232a4.743 4.743 0 0 1-.766 2.828 3.527 3.527 0 0 1-1.875 1.302l-1.207.343-.066-1.253c-.159-3.054-.582-7.254-.913-9.257-.11-.658-.223-1.579-.356-2.838a187.1 187.1 0 0 1-.076-.735l-.125-1.222 1.221.125z" fill="#000"/>
      <path d="M74.03 50.443c.025.242.05.487.077.731.11 1.042.229 2.07.347 2.78.317 1.915.756 6.108.926 9.37a2.527 2.527 0 0 0 1.344-.934c.413-.65.613-1.413.572-2.182l-.005-.266c-.025-.664-.135-1.757-.297-2.946a51.063 51.063 0 0 0-.606-3.57 15.734 15.734 0 0 0-.467-1.786 2.425 2.425 0 0 0-.215-.49 1.199 1.199 0 0 0-.446-.374 2.831 2.831 0 0 0-.678-.242 4.532 4.532 0 0 0-.551-.09z" fill="#BEBEC0"/>
      <path d="M54.47 51.28c-.133 1.26-.246 2.18-.355 2.837-.332 2.003-.754 6.204-.914 9.258l-.065 1.254-1.207-.344c-.752-.214-1.412-.672-1.914-1.358a4.676 4.676 0 0 1-.729-2.74l.008-.31c.11-1.666.31-3.323.6-4.96.17-.992.352-1.891.531-2.605.098-.389.197-.728.282-.971a3.42 3.42 0 0 1 .305-.692l.055-.085c.212-.293.493-.529.817-.687a4.303 4.303 0 0 1 1.343-.4l1.448-.18-.128 1.249-.076.733z" fill="#000"/>
      <path d="M53.476 51.174l.076-.73-.203.025c-.356.045-.703.15-1.026.307-.178.086-.33.215-.446.374a2.42 2.42 0 0 0-.215.49c-.086.246-.177.559-.267.916-.18.715-.357 1.605-.515 2.53a44.847 44.847 0 0 0-.589 4.856l-.005.266c-.04.77.16 1.532.573 2.182.332.452.805.78 1.344.933.17-3.261.608-7.454.925-9.369.119-.71.238-1.738.348-2.78z" fill="#BEBEC0"/>
      <path d="M54.253 43.856c.504-5.407 4.592-9.617 9.57-9.617 4.96 0 8.97 4.182 9.514 9.619l.402 4.933c.05.454.236 2.264.243 2.324.141 1.338.249 2.215.366 2.938l.986 11.591c0 .479-.014.89-.047 1.26-.14 1.019-.484 2-1 2.866a13.552 13.552 0 0 1-4 4.408 11.288 11.288 0 0 1-6.516 2.125 11.723 11.723 0 0 1-8.104-3.473 13.284 13.284 0 0 1-2.36-3.042 7.737 7.737 0 0 1-1.017-2.934c-.028-.32-.042-.73-.041-1.235.101-3.891.433-7.773.996-11.645.107-.644.214-1.523.348-2.787.055-.515.214-2.084.244-2.37l.416-4.961z" fill="#000"/>
      <path d="M55.25 43.94l-.416 4.961c-.074.705-.157 1.55-.246 2.39-.111 1.051-.23 2.089-.357 2.847a97.732 97.732 0 0 0-.983 11.507c0 .448.013.832.038 1.122.123.887.422 1.74.88 2.51.59 1.046 1.328 2 2.194 2.833a10.74 10.74 0 0 0 7.431 3.194 10.269 10.269 0 0 0 5.91-1.938 12.567 12.567 0 0 0 3.716-4.09c.458-.769.757-1.622.88-2.51.025-.289.037-.673.037-1.121l-.983-11.507c-.126-.758-.245-1.796-.356-2.846-.09-.841-.172-1.686-.25-2.39l-.405-4.963c-.484-4.834-4.018-8.7-8.516-8.7-4.499 0-8.123 3.866-8.574 8.7z" fill="#BEBEC0"/>
      <path d="M58.717 69.904a9.032 9.032 0 0 1 3.192-.54h3.764c.787 0 1.571.092 2.336.277.282.068.501.137.648.187l.163.058.038.015.008.003a.559.559 0 1 0 .436-1.029 10.029 10.029 0 0 0-3.629-.628H61.91a10.03 10.03 0 0 0-3.629.628.559.559 0 0 0 .437 1.03zM67.087 70.11l-.008.003c-.045.02-.296.13-.605.23a3.304 3.304 0 0 1-.919.186h-3.528a3.453 3.453 0 0 1-.98-.206 6.986 6.986 0 0 1-.4-.149l-.115-.048-.029-.013-.007-.003a.559.559 0 0 0-.464 1.017c.011.005.283.13.66.256.429.156.88.245 1.335.264h3.528a4.449 4.449 0 0 0 1.336-.264c.377-.127.648-.25.66-.256a.559.559 0 1 0-.464-1.017zM67.189 56.087c.103.467.195.834.277 1.11.043.144.08.25.126.364.01.027.025.053.02.048.059.065.135.145.253.264l.35.354c.468.462.899.96 1.293 1.497.2.277.372.575.506.874.141.303.22.63.234 1.026l-.004.095c-.034.426-.17.838-.393 1.195-.32.52-.743.97-1.23 1.314a3.748 3.748 0 0 1-.663.39 1.944 1.944 0 0 1-.68.184.94.94 0 0 0-.445.144 6.6 6.6 0 0 0-.218.123l-.274.163a7.84 7.84 0 0 1-.685.376 4.245 4.245 0 0 1-1.891.448 4.499 4.499 0 0 1-2.287-.684c-.076-.043-.15-.086-.246-.143a46.901 46.901 0 0 0-.238-.143 8.401 8.401 0 0 0-.286-.162.876.876 0 0 0-.406-.122l-.16-.02-.152-.033-.13-.036a3.33 3.33 0 0 1-.78-.4 4.664 4.664 0 0 1-1.12-1.055c-.35-.435-.567-.962-.628-1.596l.001-.125c.028-.444.162-.875.384-1.247a8.313 8.313 0 0 1 1.213-1.609c.184-.199.354-.374.613-.636.316-.319.343-.346.401-.41a.268.268 0 0 0 .046-.081c.095-.25.173-.505.239-.78.27-1.065.6-2.815.973-5.042.18-1.083.345-2.127.474-2.98l.129-.85h3.97l.128.85c.19 1.255.427 2.734.678 4.174.221 1.266.425 2.337.608 3.161z" fill="#000"/>
      <path d="M65.596 53.098a202.913 202.913 0 0 1-.681-4.197h-2.25c-.075.495-.254 1.657-.477 2.996-.297 1.78-.67 3.86-.99 5.123-.072.302-.163.6-.273.89-.05.134-.123.259-.215.368-.121.135-.276.289-.456.471s-.384.388-.59.611a7.372 7.372 0 0 0-1.082 1.431 1.81 1.81 0 0 0-.251.81c.037.401.179.746.408 1.03.25.332.554.62.9.853.172.12.36.217.558.287l.151.032c.307.015.606.104.87.261.253.135.495.292.754.44a3.553 3.553 0 0 0 1.818.552c.492-.004.977-.121 1.417-.342.415-.197.777-.448 1.154-.65.264-.157.563-.246.87-.26.1-.012.197-.04.287-.085.182-.081.354-.181.514-.298.389-.275.718-.626.968-1.031.141-.227.226-.484.247-.75a1.53 1.53 0 0 0-.14-.62 4.012 4.012 0 0 0-.41-.71 11.518 11.518 0 0 0-1.184-1.371c-.26-.265-.483-.482-.644-.66a1.255 1.255 0 0 1-.215-.37 4.63 4.63 0 0 1-.146-.425c-.095-.32-.194-.72-.296-1.18a77.097 77.097 0 0 1-.616-3.206z" fill="#BEBEC0"/>
      <path d="M57.94 54.549a1.375 1.375 0 1 0 0-2.75 1.375 1.375 0 0 0 0 2.75zM71.018 53.174a1.375 1.375 0 1 0-2.75 0 1.375 1.375 0 0 0 2.75 0zM63.791 43.053l11.275.001c.41-.02.819.053 1.197.212l.13.055.496.403.134.582v3.143l-.02.201-.07.343-.13.177c-.184.25-.45.429-.689.486a2.643 2.643 0 0 1-.872.127l-22.841-.001a2.381 2.381 0 0 1-1.154-.22l-.139-.065-.437-.4-.091-.447-.02-.2v-3.144l.11-.483.157-.185a1.4 1.4 0 0 1 .738-.466c.3-.086.613-.126.903-.119H63.79z" fill="#000"/>
      <path d="M75.115 44.053H52.468a2.115 2.115 0 0 0-.629.08.452.452 0 0 0-.248.15l-.032.136v3.03l.027.129.085.078c.209.098.439.141.67.127h22.901c.193.006.384-.02.567-.08a.332.332 0 0 0 .188-.125l.026-.129v-3.03l-.031-.136-.118-.095c-.24-.102-.5-.148-.76-.135z" fill="#BEBEC0"/>
    </g>
    <g>
      <path d="M117.178 95.895C106.04 114.425 86.02 126 64 126c-22.129 0-42.232-11.69-53.333-30.365l-.518-.87.878-.507c.58-.335.998-.672 1.92-1.502C15.202 90.731 16.558 90 19.18 90c2.622 0 3.978.731 6.231 2.756C27.33 94.481 28.29 95 30.304 95c2.013 0 2.975-.519 4.894-2.244C37.45 90.731 38.807 90 41.428 90c2.623 0 3.98.731 6.232 2.756C49.58 94.481 50.54 95 52.554 95c2.013 0 2.975-.519 4.894-2.244C59.7 90.731 61.057 90 63.678 90c2.623 0 3.98.731 6.232 2.756C71.83 94.481 72.79 95 74.804 95c2.013 0 2.975-.519 4.894-2.244C81.95 90.731 83.307 90 85.929 90s3.978.731 6.231 2.756C94.08 94.481 95.04 95 97.054 95c2.013 0 2.975-.519 4.894-2.244C104.2 90.731 105.557 90 108.179 90s3.978.731 6.231 2.756c1.097.986 1.6 1.373 2.336 1.719l1.002.47-.57.95z" fill="#000"/>
      <path d="M116.32 95.38c-2.848-1.339-3.803-4.38-8.141-4.38-5.563 0-5.563 5-11.125 5-5.563 0-5.563-5-11.125-5-5.563 0-5.563 5-11.125 5-5.563 0-5.563-5-11.125-5-5.563 0-5.563 5-11.125 5-5.563 0-5.563-5-11.125-5-5.563 0-5.563 5-11.125 5-5.563 0-5.563-5-11.125-5-4.08 0-5.167 2.69-7.652 4.124C22.16 113.012 41.68 125 64 125c22.214 0 41.654-11.874 52.32-29.62z" fill="#00ADF3"/>
    </g>
    <g fill="#FFFCF3">
      <path d="M35.325 104.777l-1.27 1.27-1.27-1.27-.867.868 1.27 1.27-1.27 1.27.867.867 1.27-1.27 1.27 1.27.867-.867-1.27-1.27 1.27-1.27zM40.689 106.935l-.742-3.669h-.701v7.297h.782v-3.768l.741 3.768h.702v-7.297h-.782zM43.675 103.266h-.671a.66.66 0 0 0-.496.19.675.675 0 0 0-.185.492v5.933a.668.668 0 0 0 .185.501.68.68 0 0 0 .496.18h.671a.68.68 0 0 0 .496-.18.667.667 0 0 0 .186-.5v-5.934a.673.673 0 0 0-.186-.491.659.659 0 0 0-.496-.19zm-.1 6.585h-.46v-5.873h.46v5.873zM47.765 103.266h-.672a.78.78 0 0 0-.501.146.565.565 0 0 0-.18.466v1.824l.014.22c.018.086.05.167.096.241l1.042 1.744.07.14.02.15v1.654h-.45v-1.653h-.792v1.753a.564.564 0 0 0 .18.466.777.777 0 0 0 .501.146h.672c.179.01.356-.041.5-.146a.562.562 0 0 0 .181-.466v-1.704l-.005-.22-.025-.16-.05-.14-.09-.16-.983-1.645-.064-.135-.025-.155v-1.654h.45v1.654h.792v-1.754a.564.564 0 0 0-.18-.466.779.779 0 0 0-.501-.146zM49.278 103.266h1v7.296h-1zM52.405 106.935l-.742-3.669h-.701v7.297h.781v-3.768l.742 3.768h.702v-7.297h-.782zM55.431 103.266h-.701a.676.676 0 0 0-.5.19.663.663 0 0 0-.191.492v5.933a.656.656 0 0 0 .19.501.697.697 0 0 0 .5.18h.702a.625.625 0 0 0 .682-.68v-3.338h-.982v.721h.19v2.586h-.49v-5.873h.49v1.654h.792v-1.684a.684.684 0 0 0-.18-.491.657.657 0 0 0-.502-.19zM57.727 103.266h-.792v7.297h1.613v-.712h-.821zM59.25 110.563h1.664v-.712h-.872v-2.586h.732v-.721h-.732v-2.566h.872v-.712H59.25zM64.11 109.851h-.45v-6.585h-.792v6.615a.625.625 0 0 0 .681.682h.672a.68.68 0 0 0 .496-.18.667.667 0 0 0 .185-.502v-6.615h-.792v6.585zM67.057 103.266h-.671a.78.78 0 0 0-.502.146.565.565 0 0 0-.18.466v1.824l.015.22c.017.086.05.167.095.241l1.043 1.744.07.14.02.15v1.654h-.45v-1.653h-.793v1.753a.564.564 0 0 0 .18.466.777.777 0 0 0 .502.146h.672c.178.01.355-.041.5-.146a.563.563 0 0 0 .18-.466v-1.704l-.004-.22-.025-.16-.05-.14-.09-.16-.983-1.645-.065-.135-.025-.155v-1.654h.451v1.654h.792v-1.754a.564.564 0 0 0-.18-.466.779.779 0 0 0-.502-.146zM68.541 110.563h1.663v-.712h-.871v-2.586h.731v-.721h-.731v-2.566h.871v-.712h-1.663zM73.552 103.266h-1.393v7.297h.792v-3.298h.63a.62.62 0 0 0 .452-.175.582.582 0 0 0 .18-.436v-2.736a.618.618 0 0 0-.195-.461.644.644 0 0 0-.466-.19zm-.13 3.278h-.471v-2.566h.47v2.566zM75.807 103.266h-.792v7.297h1.614v-.712h-.822zM78.733 103.266h-.752a.65.65 0 0 0-.65.652v6.645h.791v-3.298h.471v3.298h.791v-6.645a.65.65 0 0 0-.65-.652zm-.14 3.278h-.471v-2.566h.471v2.566zM81.54 103.266h-.672a.78.78 0 0 0-.501.146.565.565 0 0 0-.18.466v1.824l.015.22c.017.086.049.167.095.241l1.042 1.744.07.14.02.15v1.654h-.45v-1.653h-.792v1.753a.564.564 0 0 0 .18.466.777.777 0 0 0 .501.146h.672c.179.01.356-.041.5-.146a.563.563 0 0 0 .181-.466v-1.704l-.005-.22-.025-.16-.05-.14-.09-.16-.983-1.645-.064-.135-.026-.155v-1.654h.452v1.654h.791v-1.754a.564.564 0 0 0-.18-.466.779.779 0 0 0-.501-.146zM82.893 103.978h.581v6.585h.852v-6.585h.581v-.712h-2.014zM85.638 103.266h1v7.296h-1zM88.675 103.266h-.671a.656.656 0 0 0-.501.19.684.684 0 0 0-.18.492v5.933a.625.625 0 0 0 .68.682h.672a.625.625 0 0 0 .682-.682v-1.683h-.792v1.653h-.45v-5.873h.45v1.654h.792v-1.684a.684.684 0 0 0-.18-.491.657.657 0 0 0-.502-.19zM95.131 104.777l-1.27 1.27-1.27-1.27-.867.868 1.27 1.27-1.27 1.27.867.867 1.27-1.27 1.27 1.27.868-.867-1.27-1.27 1.27-1.27z"/>
    </g>
    <g fill="#FFFCF3">
      <path d="M14.678 38.963l4.1 2.45c.166.1.338.187.517.262.214.076.44.113.668.109l5.32-.002c.137-.005.275.005.41.03.129.034.252.086.365.158l3.717 2.22-.605 1.014-3.718-2.22-1.063 1.78 3.943 2.355c.372.27.849.352 1.29.22.43-.186.783-.515 1-.931l.901-1.51c.264-.388.387-.854.346-1.322a1.475 1.475 0 0 0-.805-1.031l-3.83-2.288a10.79 10.79 0 0 0-.503-.285 1.944 1.944 0 0 0-.394-.159 3.135 3.135 0 0 0-.383-.076 2.706 2.706 0 0 0-.481-.012h-5.014a2.516 2.516 0 0 1-.392-.035 1.129 1.129 0 0 1-.383-.152l-3.717-2.22.605-1.014 3.718 2.22 1.063-1.78-3.943-2.355a1.476 1.476 0 0 0-1.29-.22 2.04 2.04 0 0 0-1 .931l-.901 1.51a2.039 2.039 0 0 0-.346 1.321c.093.45.39.832.805 1.032zM33.214 42.29l1.356-1.569-6.53-5.648.807-.933 6.53 5.649 1.357-1.569-13.16-11.382a1.702 1.702 0 0 0-2.407.174L19.879 28.5a1.702 1.702 0 0 0 .175 2.406l13.16 11.383zM22.336 28.509l5.081 4.395-.807.933-5.081-4.395.807-.933zM35.937 34.87c.151.153.318.29.498.407.166.106.346.188.534.243.193.058.417.12.671.183l1.588.336 1.245-1.007.003-1.623a8.72 8.72 0 0 0-.049-.687 2.58 2.58 0 0 0-.41-1.154 7.914 7.914 0 0 0-.505-.687l-9.608-11.875-1.612 1.305 10.433 12.894-.918.743-10.433-12.895-1.612 1.305 9.608 11.874c.177.223.366.436.567.638zM46.986 30.889l-.925-1.618-1.982 1.133-3.359-5.88 1.664-.95-.938-1.641-1.663.951-3.333-5.834 1.983-1.133-.924-1.618-3.783 2.161 9.477 16.59zM52.07 26.953l-1.2-4.161-1.991.574 1.22 4.237a1.638 1.638 0 0 0 2.21 1.22l1.69-.487a1.638 1.638 0 0 0 1.22-2.209L50.422 9.483l-1.992.574 4.775 16.569-1.135.327zM61.535 27.068l-.223-1.85-2.267.273-.81-6.722 1.902-.229-.226-1.876-1.902.229-.804-6.67 2.267-.274-.223-1.85-4.325.522 2.286 18.968zM64.392 27.07l1.757.07a1.638 1.638 0 0 0 1.854-1.71L68.7 8.121l-2.072-.083-.692 17.228-1.18-.047.174-4.327-2.072-.083-.177 4.405a1.638 1.638 0 0 0 1.712 1.855zM71.123 27.774l1.717.377c.463.126.957.06 1.37-.183.406-.27.68-.697.756-1.177l3.715-16.919-2.025-.444-3.698 16.841-1.154-.253 3.698-16.842-2.025-.444-3.715 16.918a1.638 1.638 0 0 0 1.36 2.126zM83.277 31.79c.427-.128.782-.426.982-.824l2.929-5.724c.063-.126.119-.255.168-.386a1.132 1.132 0 0 0-.062-.946 1.385 1.385 0 0 0-.453-.468c.204.083.425.115.645.094a1.128 1.128 0 0 0 .796-.49c.081-.121.155-.246.221-.374l2.917-5.701c.214-.4.252-.872.106-1.302a1.615 1.615 0 0 0-.824-.982l-3.294-1.686-8.704 17.009L82 31.696c.394.206.857.24 1.278.094zm5.128-16.185l1.098.562-3.06 5.98-1.099-.561 3.06-5.981zm-3.922 7.663l1.098.562-3.084 6.027-1.098-.561 3.084-6.028zM86.365 34.49l5.238-6.864.98.748-5.237 6.864 1.648 1.258L99.55 22.664a1.703 1.703 0 0 0-.321-2.391l-1.565-1.194a1.702 1.702 0 0 0-2.391.32L84.717 33.233l1.648 1.258zm10.46-13.707l.981.748-4.076 5.341-.98-.748 4.075-5.341zM92.557 40.2a1.703 1.703 0 0 0 2.373.106l11.598-10.613c.34-.3.54-.729.554-1.183a1.615 1.615 0 0 0-.43-1.208l-2.498-2.73L90.06 37.47l2.498 2.73zm11.622-12.84l.833.91-11.346 10.382-.833-.91 11.346-10.382zM95.675 44.342l7.302-4.606.658 1.043-7.302 4.607 1.106 1.753 14.717-9.283a1.703 1.703 0 0 0 .532-2.353l-1.05-1.665a1.702 1.702 0 0 0-2.353-.533L94.568 42.59l1.107 1.753zm14.583-9.2l.658 1.044-5.682 3.585-.658-1.044 5.682-3.584z"/>
    </g>
  </g>
</svg>
