<svg xmlns="http://www.w3.org/2000/svg" width="1080" height="1350" viewBox="0 0 1080 1350">
  <title>Friends of Save Jeju Bada</title>
  <g fill="none" fill-rule="evenodd" stroke-linecap="round" stroke-linejoin="round">
    <g class="step step--3" fill-rule="nonzero" stroke="#FFF" stroke-width="10" transform="translate(147 412)">
      <path d="M123.1875 179.269531C104.461417 179.269531 90.7883604 173.677463 72.8320312 167.335938M114.710938 118.207031C77.8367572 106.343392 103.178641 115.84855 43.0039062 80.1132812M144.695312 74.078125C138.093393 41.9995663 142.217048 57.0381365 132.839844 28.8242188M218.753906 72.078125C219.85304 46.9482825 229.142677 25.0597909 236.90625.95703125M259.949219 133.367188C305.901192 104.695604 283.957051 115.790398 324.769531 98.1523438M266.988281 215.035156C308.032639 215.035156 287.009997 216.512731 330.015625 210.058594M282.152344 290.785156C337.716792 293.283735 307.357044 290.248512 372.984375 302.09375M290.195312 336.988281C299.532552 337.93099 308.869792 338.873698 318.207031 339.816406M266.589844 389.726562C299.402977 430.525598 284.337068 413.75136 310.441406 441.226562M238.4375 413.738281C238.828125 429.571615 239.21875 445.404948 239.609375 461.238281M177.703125 439.964844C163.330316 467.694914 159.818525 494.679967 156.035156 525.457031M145.382812 381.882812C126.480008 402.769925 138.309578 390.805615 108.371094 416.203125M123.957031 325.183594C90.209348 325.183594 57.1980675 339.659359 29.203125 358.78125M120.117188 294.210938C109.05599 296.265625 97.9947917 298.320312 86.9335938 300.375M125.859 232.063L104.758 232.063 97.648 232.063 79.93 232.063 71.156 232.063 58.531 232.063 39.293 232.063 36.133 232.063 17.484 232.063 13.18 232.063 7.859 232.063 6.477 232.063 4.289 232.063 2.781 232.063 2.027 232.063 1.734 232.063.988 232.063.441 232.063"/>
      <path d="M143.601562 118.875C111.367197 65.871911 128.098767 91.1829987 93.6445312 42.7851562M191.488281 114.996094C191.096354 99.9127604 190.704427 84.8294271 190.3125 69.7460938M232 124.949219C233.699754 53.4780025 231.038483 95.1408103 244.070312.2890625M267.621094 136.039062C272.680658 108.787405 268.042539 125.826613 288.183594 87.2148438M301.964844 169.476562C365.953812 122.490225 340.940498 136.820738 372.484375 119.414062M322.441 229.051L338.602 229.051 341.758 229.051 345.426 229.051 346.805 229.051 348.473 229.051 349.223 229.051 350.676 229.051 351.254 229.051 351.543 229.051M322.917969 265.308594C359.033543 267.941912 341.275514 264.807275 376.1875 274.738281M312.65625 339.386719C342.923957 340.725954 328.780303 338.082156 355.257812 346.34375M305.273438 372.859375C317.457031 392.964844 329.640625 413.070312 341.824219 433.175781M262.305 406.84L262.305 420.07 262.305 422.238 262.305 423.734 262.305 424.484 262.305 426.113 262.305 427.902M226.890625 390.230469C226.890625 416.038189 224.742188 440.334465 224.742188 465.960938M186.273438 372.269531C186.273438 387.512835 180.60735 402.083969 179.484375 417.441406M156.90625 340.121094C145.971556 367.985642 149.261846 354.208938 146.019531 381.195312M121.972656 330.789062C71.2157811 362.593181 92.2331523 345.220362 56.8476562 380.292969M109.769531 278.773438C91.224726 280.421292 102.020782 278.396029 78.078125 287.804688M109.808594 237.542969C17.8618173 226.764321 53.0298404 237.93828.91796875 217.601562M122.515625 176.546875C100.433594 165.557292 78.3515625 154.567708 56.2695312 143.578125" transform="translate(541 297)"/>
    </g>
    <g class="step step--2" fill-rule="nonzero" stroke="#FFF" stroke-width="8" transform="translate(163 429)">
      <path d="M248.453125 198.623047C286.242463 198.623047 267.787156 199.553295 303.830078 196.060547M262.898438 273.607422C303.8813 274.020635 277.978657 272.613301 340.166016 282.884766M271.074219 319.316406C283.683425 319.316406 277.172436 318.621776 290.560547 321.798828M248.447266 370.058594C269.950467 398.82948 258.408723 385.724202 282.765625 409.642578M222.650391 393.101562C222.070964 406.623047 221.491536 420.144531 220.912109 433.666016M162.974609 421.34375C157.966549 445.3479 145.858336 466.719713 141.277344 490.710938M129.380859 363.787109C120.86849 372.593099 112.35612 381.399089 103.84375 390.205078M108.644531 309.339844C78.7633084 309.736965 53.0210089 317.861983 27.0410156 332.945312M108.339844 276.587891C91.1981481 276.587891 100.220796 275.442695 81.4296875 281.095703M110.605469 216.703125C74.0026042 216.109375 37.3997396 215.515625.796875 214.921875M107.626953 163.203125C78.9460017 160.84707 91.8072825 163.416957 68.7910156 156.884766M100.074219 102.5C79.6982111 100.390451 66.9213483 90.4125492 51.0371094 78.890625M129.804688 60.5957031C128.042762 47.251101 120.720665 35.9312702 118.251953 22.7207031M203.392578 57.0117188C203.392578 36.8182717 208.952121 19.415665 215.699219.642578125M243.248047 116.761719C275.990284 99.1406635 262.069053 108.017098 285.777344 91.3730469"/>
      <path d="M119.042969 97.3496094C95.3821475 66.2157001 109.307671 85.8433274 79.6386719 36.8535156M167.265625 92.7421875C167.202474 80.8580729 167.139323 68.9739583 167.076172 57.0898438M206.042969 104.400391C206.042969 26.2995299 200.953291 60.7482088 215.648438.375M242.851562 114.125C247.457507 88.5829463 243.416759 100.675567 254.816406 77.7949219M276.507812 148.796875C321.681137 113.848181 302.295976 126.194825 332.361328 108.369141M295.044922 208.867188C302.878906 208.608724 310.712891 208.35026 318.546875 208.091797M297.009766 242.128906C315.388436 242.373692 324.825831 241.764717 340.171875 250.345703M285.404 317.141L290.672 317.141 294.102 317.141 304.426 317.141 306.693 317.141 311.145 317.141 312.926 317.141 317.289 317.141 318.381 317.141 320.852 317.141 321.227 317.141 322.953 317.141 323.098 317.141 323.613 317.141 324.045 317.141 324.189 317.141M277.337891 348.300781C283.107511 363.889151 294.116556 374.63054 302.904297 388.595703M239.521484 383.652344C239.776042 387.636719 240.030599 391.621094 240.285156 395.605469M200.667969 364.658203C200.781901 386.560547 200.895833 408.462891 201.009766 430.365234M162.492188 348.089844C161.422526 357.803385 160.352865 367.516927 159.283203 377.230469M131.585938 314.662109C129.330729 325.22526 127.075521 335.788411 124.820312 346.351562M99.3378906 306.669922C77.002979 308.965454 63.0448378 327.505251 49.7128906 343.046875M87.203125 255.404297C74.1592388 255.88698 79.546224 254.516227 70.703125 257.820312M85.4042969 216.484375C31.138643 208.76775 59.4973236 213.483994.3984375 201.919922M98.5566406 153.859375C79.2075793 148.857244 63.1273051 141.034903 45.9003906 130.986328" transform="translate(549 303)"/>
    </g>
    <g class="step step--1" fill-rule="nonzero" stroke="#FFF" stroke-width="6" transform="translate(202 453)">
      <path d="M162.644531 32.0410156C165.049479 21.4609375 167.454427 10.8808594 169.859375.30078125M203.041016 95.6796875C217.731036 87.9707768 210.674768 92.4188744 224.171875 82.2753906M211.080078 174.972656C217.414714 174.847005 223.749349 174.721354 230.083984 174.595703M224.150391 248.548828C248.497135 248.548828 233.769077 247.75399 268.115234 253.550781M229.757812 297.230469C233.515625 297.411458 237.273438 297.592448 241.03125 297.773438M208.355469 347.914062C213.291667 354.803385 218.227865 361.692708 223.164062 368.582031M182.646484 368.605469C182.646484 392.998476 181.096714 382.47589 185.263672 400.40625M122.976562 396.822266C117.968529 421.743485 121.670791 407.699244 110.160156 438.466797M91.0546875 339.238281C76.4858393 347.442881 81.3632962 342.037867 74.5957031 353.595703M69.6210938 284.460938C44.272887 284.460938 36.4024934 287.888571 11.1210938 297.269531M72.0839844 252.259766C67.2083333 252.876302 62.3326823 253.492839 57.4570312 254.109375M71.90625 192.130859C48.0709635 191.809896 24.2356771 191.488932.400390625 191.167969M71.4628906 139.765625C62.5429688 138.960938 53.6230469 138.15625 44.703125 137.351562M63.1992187 80.1835938C44.7698022 69.444239 55.7739419 75.0778014 29.5019531 64.6933594M90.71875 38.4609375C88.1571476 22.4485361 90.2656233 31.7560551 82.8085938 10.9453125"/>
      <path d="M166.027344 72.3476562C167.324882 10.4249395 162.703251 34.0860656 171.046875.197265625M202.195312 82.9296875C204.279948 75.8535156 206.364583 68.7773438 208.449219 61.7011719M236.814453 116.568359C248.15625 108.172526 259.498047 99.7766927 270.839844 91.3808594M254.523 175.641L256.313 175.641 258.959 175.641 259.334 175.641 260.227 175.641 260.371 175.641 261.035 175.641 261.322 175.641 261.898 175.641 262.416 175.641 263.311 175.641 263.6 175.641 264.264 175.641 264.553 175.641 264.84 175.641 265.129 175.641 265.418 175.641 265.707 175.641M255.435547 210.095703C263.203776 210.441406 270.972005 210.787109 278.740234 211.132812M243.751953 283.410156C251.782552 284.090495 259.813151 284.770833 267.84375 285.451172M237.505859 313.957031C240.916016 322.30599 244.326172 330.654948 247.736328 339.003906M200.283 348.078L200.283 351.289 200.283 351.664 200.283 352.164 200.283 352.309 200.283 352.742 200.283 352.865 200.283 352.982 200.283 353.107 200.283 353.377 200.283 353.494 200.283 353.604 200.283 353.711 200.283 353.836 200.283 354.125M163.939453 329.976562C165.422079 374.374458 167.055295 355.834024 162.759766 385.800781M125.908203 311.552734C124.923177 316.898438 123.938151 322.244141 122.953125 327.589844M93.7519531 278.849609C91.3919271 285.44401 89.031901 292.038411 86.671875 298.632812M61.6269531 273.361328C49.8558295 275.392424 41.4373894 281.1826 32.5195312 288.576172M50.4609375 221.953125C47.3815104 222.333333 44.3020833 222.713542 41.2226562 223.09375M48.4121094 182.755859C15.6698073 181.114141 31.6053906 183.052639.576171875 177.185547M62.2636719 123.169922C40.2447745 116.278493 49.3818791 121.319242 33.9707031 109.769531M80.4394531 65.9296875C73.4589844 54.7571615 66.4785156 43.5846354 59.4980469 32.4121094M128.296875 62.5117188C128.027344 54.0416667 127.757812 45.5716146 127.488281 37.1015625" transform="translate(549 312)"/>
    </g>
  </g>
</svg>
